[
   {
      "targetName": "Mainnet Trollbox",
      "targetAddress": "0xEa6556E350cD0C61452a26aB34E69EBf6f1808BA",
      "networkId": 1,
      "tokens": [
         {
            "tokenName": "FVT",
            "tokenAddress": "0x45080a6531d671DDFf20DB42f93792a489685e32",
            "yellowThreshold": 100000
         }
      ]
   },
   {
      "targetName": "BSC Trollbox",
      "targetAddress": "0xA6Bb733a61f2f4F09090781CCCD80929c9234b3f",
      "networkId": 56,
      "tokens": [
         {
            "tokenName": "FVT",
            "tokenAddress": "0x0A232cb2005Bda62D3DE7Ab5DEb3ffe4c456165a",
            "yellowThreshold": 100000
         }
      ]
   },
   {
      "targetName": "Mainnet LiquidityFactory",
      "targetAddress": "0xF94E4ee9a0ACA2193c0E9d38F60202382eAfBF4F",
      "networkId": 1,
      "tokens": [
         {
            "tokenName": "FVT",
            "tokenAddress": "0x45080a6531d671DDFf20DB42f93792a489685e32",
            "yellowThreshold": 10000
         },
         {
            "tokenName": "ITG",
            "tokenAddress": "0xf88b137cfa667065955abd17525e89edcf4d6426",
            "yellowThreshold": 10000
         }
      ]
   },
   {
      "targetName": "Mainnet BasicPoolFactory",
      "targetAddress": "0x26D853B680e28d33e3Df80C566027452bB32e9B3",
      "networkId": 1,
      "tokens": [
         {
            "tokenName": "FVT",
            "tokenAddress": "0x45080a6531d671DDFf20DB42f93792a489685e32",
            "yellowThreshold": 10000
         },
         {
            "tokenName": "ITG",
            "tokenAddress": "0xf88b137cfa667065955abd17525e89edcf4d6426",
            "yellowThreshold": 10000
         }
      ]
   },
   {
      "targetName": "Mainnet Bridge Address",
      "targetAddress": "0x2E70f28C39c8d1f1b737cD37e1EC76b72bD87cf6",
      "networkId": 1,
      "tokens": [
         {
            "tokenName": "ETH",
            "tokenAddress": "",
            "yellowThreshold": 0.3
         }
      ]
   },
   {
      "targetName": "BSC Bridge Address",
      "targetAddress": "0x2E70f28C39c8d1f1b737cD37e1EC76b72bD87cf6",
      "networkId": 56,
      "tokens": [
         {
            "tokenName": "BNB",
            "tokenAddress": "",
            "yellowThreshold": 2
         }
      ]
   },
   {
      "targetName": "Polygon Bridge Address",
      "targetAddress": "0x2E70f28C39c8d1f1b737cD37e1EC76b72bD87cf6",
      "networkId": 137,
      "tokens": [
         {
            "tokenName": "MATIC",
            "tokenAddress": "",
            "yellowThreshold": 2
         }
      ]
   }
]